{
    "current_page": 1,
    "data": [
        {
            "id": 1,
            "name": "Robert Kihn",
            "description": "Dolore sed nihil iusto sit. Eaque illum consequatur cumque autem deleniti. Eum in voluptas animi quis assumenda maxime.",
            "price": "72.50",
            "image_url": "https://cdn.lorem.space/images/album/.cache/300x300/mdna_madonna.jpg",
            "created_at": "2023-03-26T23:18:18.000000Z",
            "updated_at": "2023-03-26T23:18:18.000000Z"
        },
        {
            "id": 2,
            "name": "Cleveland Muller",
            "description": "Ipsam non reprehenderit sapiente voluptas voluptates doloremque eveniet. Qui omnis qui illum animi at et at.",
            "price": "35.55",
            "image_url": "https://cdn.lorem.space/images/game/.cache/300x300/pes-2018.jpg",
            "created_at": "2023-03-26T23:18:18.000000Z",
            "updated_at": "2023-03-26T23:18:18.000000Z"
        },
        {
            "id": 3,
            "name": "Mrs. Elfrieda Monahan",
            "description": "Dicta vel corrupti ut. Praesentium et quas enim ipsam. Beatae ex nisi eveniet quia tempora.",
            "price": "93.06",
            "image_url": "https://cdn.lorem.space/images/game/.cache/300x300/horizon-forbidden.jpg",
            "created_at": "2023-03-26T23:18:18.000000Z",
            "updated_at": "2023-03-26T23:18:18.000000Z"
        },
        {
            "id": 4,
            "name": "Miss Phoebe Boyle",
            "description": "Vitae aut fuga quam ut ea. Facere molestias sunt saepe nostrum sequi similique est. Optio officiis ullam modi fugiat sed. Voluptate consequuntur itaque voluptas nihil tempore sint.",
            "price": "77.89",
            "image_url": "https://cdn.lorem.space/images/furniture/.cache/300x300/naomi-hebert-2dcYhvbHV-M-unsplash.jpg",
            "created_at": "2023-03-26T23:18:18.000000Z",
            "updated_at": "2023-03-26T23:18:18.000000Z"
        },
        {
            "id": 5,
            "name": "Gladys Monahan",
            "description": "Atque atque nam atque repellat perferendis quae aut officia. Incidunt asperiores ex voluptatibus et odit porro id. Libero magnam voluptatibus et ut.",
            "price": "82.90",
            "image_url": "https://cdn.lorem.space/images/hotel/.cache/300x300/pexels-max-vakhtbovych-6970069.jpg",
            "created_at": "2023-03-26T23:18:18.000000Z",
            "updated_at": "2023-03-26T23:18:18.000000Z"
        },
        {
            "id": 6,
            "name": "Mr. Riley Steuber DDS",
            "description": "Deleniti nihil ducimus quia nihil. Est magni est omnis exercitationem.",
            "price": "72.34",
            "image_url": "https://cdn.lorem.space/images/fashion/.cache/300x300/ivana-cajina-_7LbC5J-jw4-unsplash.jpg",
            "created_at": "2023-03-26T23:18:18.000000Z",
            "updated_at": "2023-03-26T23:18:18.000000Z"
        },
        {
            "id": 7,
            "name": "Justina Senger I",
            "description": "Eos ex sequi doloremque voluptates. Qui porro provident non autem minima corrupti et. Consequuntur quas et voluptatem sequi dolor saepe numquam.",
            "price": "75.46",
            "image_url": "https://cdn.lorem.space/images/fashion/.cache/300x300/leon-ell-C8Q_zR8PDlA-unsplash.jpg",
            "created_at": "2023-03-26T23:18:18.000000Z",
            "updated_at": "2023-03-26T23:18:18.000000Z"
        },
        {
            "id": 8,
            "name": "Ashleigh Kirlin",
            "description": "Quia qui a iusto vitae. Omnis nemo quisquam iure eos. Sed saepe vel suscipit et quia. Et ut enim hic veritatis sunt repudiandae earum maxime.",
            "price": "95.58",
            "image_url": "https://cdn.lorem.space/images/shoes/.cache/300x300/alex-motoc-xyjB6_ZDaKw-unsplash.jpg",
            "created_at": "2023-03-26T23:18:18.000000Z",
            "updated_at": "2023-03-26T23:18:18.000000Z"
        },
        {
            "id": 9,
            "name": "Carissa Bernhard",
            "description": "Quis consequatur est consequatur impedit cupiditate est. Vitae nam similique id repudiandae cumque distinctio.",
            "price": "47.45",
            "image_url": "https://cdn.lorem.space/images/face/.cache/300x300/michael-dam-mEZ3PoFGs_k-unsplash.jpg",
            "created_at": "2023-03-26T23:18:18.000000Z",
            "updated_at": "2023-03-26T23:18:18.000000Z"
        },
        {
            "id": 10,
            "name": "Hudson Reichert V",
            "description": "Et totam consequatur quaerat quis qui. Corrupti enim officia hic harum. Accusamus sed nobis eveniet nesciunt rem. Qui nobis dolores perferendis voluptatum ut.",
            "price": "97.82",
            "image_url": "https://cdn.lorem.space/images/hotel/.cache/300x300/pexels-max-vakhtbovych-7061675.jpg",
            "created_at": "2023-03-26T23:18:18.000000Z",
            "updated_at": "2023-03-26T23:18:18.000000Z"
        },
        {
            "id": 11,
            "name": "Jon Kuhic",
            "description": "Asperiores ipsa architecto vel. Autem incidunt earum tempore nobis delectus assumenda. Corporis non et ut voluptas ex.",
            "price": "23.81",
            "image_url": "https://cdn.lorem.space/images/movie/.cache/300x300/cry-macho-2021.jpeg",
            "created_at": "2023-03-26T23:18:18.000000Z",
            "updated_at": "2023-03-26T23:18:18.000000Z"
        },
        {
            "id": 12,
            "name": "Jamel Morar",
            "description": "Consequatur ducimus sit aperiam inventore non. Et nostrum incidunt distinctio. Minus ex cupiditate blanditiis vel. Aut et sed repudiandae nostrum voluptas.",
            "price": "64.14",
            "image_url": "https://cdn.lorem.space/images/pizza/.cache/300x300/shourav-sheikh-a66sGfOnnqQ-unsplash.jpg",
            "created_at": "2023-03-26T23:18:18.000000Z",
            "updated_at": "2023-03-26T23:18:18.000000Z"
        }
    ],
    "first_page_url": "http://localhost?page=1",
    "from": 1,
    "last_page": 17,
    "last_page_url": "http://localhost?page=17",
    "links": [
        {
            "url": null,
            "label": "Previous",
            "active": false
        },
        {
            "url": "http://localhost?page=1",
            "label": "1",
            "active": true
        },
        {
            "url": "http://localhost?page=2",
            "label": "2",
            "active": false
        },
        {
            "url": "http://localhost?page=3",
            "label": "3",
            "active": false
        },
        {
            "url": "http://localhost?page=4",
            "label": "4",
            "active": false
        },
        {
            "url": "http://localhost?page=5",
            "label": "5",
            "active": false
        },
        {
            "url": "http://localhost?page=6",
            "label": "6",
            "active": false
        },
        {
            "url": "http://localhost?page=7",
            "label": "7",
            "active": false
        },
        {
            "url": "http://localhost?page=8",
            "label": "8",
            "active": false
        },
        {
            "url": "http://localhost?page=9",
            "label": "9",
            "active": false
        },
        {
            "url": "http://localhost?page=10",
            "label": "10",
            "active": false
        },
        {
            "url": null,
            "label": "...",
            "active": false
        },
        {
            "url": "http://localhost?page=16",
            "label": "16",
            "active": false
        },
        {
            "url": "http://localhost?page=17",
            "label": "17",
            "active": false
        },
        {
            "url": "http://localhost?page=2",
            "label": "Next",
            "active": false
        }
    ],
    "next_page_url": "http://localhost?page=2",
    "path": "http://localhost",
    "per_page": 12,
    "prev_page_url": null,
    "to": 12,
    "total": 200
}
